…
Hans Rosling-style Bubble Plots

Hans Rosling was a physician, academic, public speaker and enthusiastic promoter of a fact-based worldview. I heard the first time about him when I was taking intro courses on statistics, and I remember thinking already back then that his visualizations were impressive. I also managed (finally) to read his Factfulness book (Rosling, Rönnlund, and Rosling 2020) recently, and I thought it would be nice to try out the kind of visualizations he uses on his presentations.

Luckily, it turned out that imitating Rosling’s visualizations isn’t so hard these days if you know a little bit of R. I started my investigation by simply Googling “hans rosling style plots in r.” The first instructions I found were done by Tristan Ganry (2018), and I learned from his instructions that you can generate Rosling-style plots easily using gganimate (for creating GIF files) or plotly (for HTML files) package. Since I was mainly interested in creating HTML-type interactive plots, this post deals only with the plotly package method.

Interactive (Bubble) Charts Using the plotly Package

So, how to imitate the kind of bubble chart as shown under the title of this blog post? After some Googling, I found the needed instructions from plotly package’s webpage under the topic “Intro to Animations in R” (plotlygraphs 2017). Actually, the example data used in these instructions was exactly from Gapminder, and there’s a R package for this dataset which can be downloaded to your R environment simply by typing library(gapminder) in your RMarkdown code chunk or your R console:

library(gapminder)
gapminder

## # A tibble: 1,704 × 6
##    country     continent  year lifeExp      pop gdpPercap
##    <fct>       <fct>     <int>   <dbl>    <int>     <dbl>
##  1 Afghanistan Asia       1952    28.8  8425333      779.
##  2 Afghanistan Asia       1957    30.3  9240934      821.
##  3 Afghanistan Asia       1962    32.0 10267083      853.
##  4 Afghanistan Asia       1967    34.0 11537966      836.
##  5 Afghanistan Asia       1972    36.1 13079460      740.
##  6 Afghanistan Asia       1977    38.4 14880372      786.
##  7 Afghanistan Asia       1982    39.9 12881816      978.
##  8 Afghanistan Asia       1987    40.8 13867957      852.
##  9 Afghanistan Asia       1992    41.7 16317921      649.
## 10 Afghanistan Asia       1997    41.8 22227415      635.
## # … with 1,694 more rows
…
